Exploratory Data Analysis
…
This shows the mean inflated US box office total for each decade. 1930 had the largest mean (probably because Gone with the Wind was released this decade). 2000 and 2010 had the lowest means.

movies_comb

## # A tibble: 17,172 x 25
##       X1 Title  Year Rated Released Runtime Genre Director Writer Actors Plot 
##    <dbl> <chr> <dbl> <chr> <chr>      <dbl> <chr> <chr>    <chr>  <chr>  <chr>
##  1     1 The …  1994 R     14-Oct-…     142 Crime Frank D… "Step… Tim R… Two …
##  2     1 The …  1994 R     14-Oct-…     142 Drama Frank D… "Step… Tim R… Two …
##  3     1 The …  1994 R     14-Oct-…     142 Crime Frank D… "Step… Morga… Two …
##  4     1 The …  1994 R     14-Oct-…     142 Drama Frank D… "Step… Morga… Two …
##  5     1 The …  1994 R     14-Oct-…     142 Crime Frank D… "Step… Bob G… Two …
##  6     1 The …  1994 R     14-Oct-…     142 Drama Frank D… "Step… Bob G… Two …
##  7     1 The …  1994 R     14-Oct-…     142 Crime Frank D… "Step… Willi… Two …
##  8     1 The …  1994 R     14-Oct-…     142 Drama Frank D… "Step… Willi… Two …
##  9     1 The …  1994 R     14-Oct-…     142 Crime Frank D… Frank… Tim R… Two …
## 10     1 The …  1994 R     14-Oct-…     142 Drama Frank D… Frank… Tim R… Two …
## # … with 17,162 more rows, and 14 more variables: Language <chr>,
## #   Country <chr>, oscarsWon <dbl>, oscarsNom <dbl>, Metascore <dbl>,
## #   imdbRating <dbl>, imdbVotes <dbl>, imdbid <chr>, DVD <chr>,
## #   USboxOfficeInf <dbl>, Production <chr>, Decade <dbl>, rating <int>,
## #   id <int>

movies_comb%>%group_by(Actors)%>%distinct(USboxOfficeInf)%>%
   summarize(mean_BoxOfficeUs=mean(USboxOfficeInf, na.rm=T),
   num_movies=n_distinct(USboxOfficeInf))%>%
   arrange(desc(mean_BoxOfficeUs))

## # A tibble: 816 x 3
##    Actors           mean_BoxOfficeUs num_movies
##    <chr>                       <dbl>      <int>
##  1 Barbara O'Neil         1802000000          1
##  2 Evelyn Keyes           1802000000          1
##  3 Thomas Mitchell        1802000000          2
##  4 Vivien Leigh           1802000000          1
##  5 Peter Cushing          1286033500          1
##  6 Lorraine Gary          1153990200          1
##  7 Richard Dreyfuss       1153990200          1
##  8 Roy Scheider           1153990200          1
##  9 Robert Shaw             978583650          2
## 10 Adam Driver             974117000          1
## # … with 806 more rows

This shows the mean inflated US box office totals for each actor, arranged in descending order of the mean money. The actors from Gone with the Wind had the greatest amount. Next was Peter Cushing who acted in Star Wars: A New Hope. Following him is Lorraine Gary, who was in Jaws. Most of these actors with the highest mean only acted in one movie.

movies_comb%>%filter(Decade==2000)%>%na.omit()%>%
  group_by(Director)%>%distinct(USboxOfficeInf)%>%
  summarize(mean_BoxOfficeUs=mean(USboxOfficeInf),
  num_movies=n_distinct(USboxOfficeInf),max_BoxOfficeUs=max(USboxOfficeInf),
  min_BoxOfficeUs=min(USboxOfficeInf))%>%arrange(desc(mean_BoxOfficeUs))#, desc(num_movies))

## # A tibble: 41 x 5
##    Director          mean_BoxOfficeUs num_movies max_BoxOfficeUs min_BoxOfficeUs
##    <chr>                        <dbl>      <int>           <dbl>           <dbl>
##  1 Peter Jackson           493499133.          3       554458600       409772500
##  2 Lee Unkrich             456922250           2       507600600       406243900
##  3 Gore Verbinski          456346600           1       456346600       456346600
##  4 David Silverman         406243900           1       406243900       406243900
##  5 Andrew Stanton          394225300           2       507600600       280850000
##  6 Pete Docter             380050350           2       406243900       353856800
##  7 Bob Peterson            353856800           1       353856800       353856800
##  8 Ridley Scott            313674500           1       313674500       313674500
##  9 Paul Greengrass         297894500           1       297894500       297894500
## 10 Christopher Nolan       267860250           4       669163900        40664200
## # … with 31 more rows

This shows the directors in 2000s, arranged by descending mean US box office totals. Peter Jackson had the largest mean box office with 3 movies. Next is Lee Unkrich who had two movies. Christopher Nolan had the most movies (4) in 2000s but was ranked number 10 by mean box office totals.

movies_comb%>%filter(rating==3)%>%select(Title,Actors)%>%
  distinct()%>%group_by(Actors)%>%
  summarize(n=n())%>%arrange(desc(n))

## # A tibble: 324 x 2
##    Actors                    n
##    <chr>                 <int>
##  1 Aamir Khan                2
##  2 Arnold Schwarzenegger     2
##  3 Bette Davis               2
##  4 Bruce Willis              2
##  5 Clint Eastwood            2
##  6 Ellen Burstyn             2
##  7 Emma Stone                2
##  8 Fred MacMurray            2
##  9 George Sanders            2
## 10 Harrison Ford             2
## # … with 314 more rows

This ranks each actor by the number of movies he was in that had a score of 3 on the Bechdel test. A score of 3 indicates the movie passed the test. Aamir Khan, Arnold Schwarzenegger, Bette Davis, Emma Stone, Clint Eastwood, Bruce Wilis, Harrison Ford, and many others acted in the most number of movies that passed the Bechdel Test. The highest number of movies was only 2.

movies_comb%>%group_by(Language,Rated)%>%
  distinct(USboxOfficeInf)%>%
  summarize(mean_BoxOfficeUs=mean(USboxOfficeInf, na.rm=T))%>%
  arrange(desc(mean_BoxOfficeUs))

## # A tibble: 104 x 3
## # Groups:   Language [47]
##    Language    Rated mean_BoxOfficeUs
##    <chr>       <chr>            <dbl>
##  1 Hebrew      PG          695924500 
##  2 Nepali      PG          695924500 
##  3 Swahili     G           672365600 
##  4 Xhosa       G           672365600 
##  5 Zulu        G           672365600 
##  6 Arabic      PG          589271850 
##  7 English     G           557894937.
##  8 Quenya      PG-13       554458600 
##  9 Old English PG-13       535362450 
## 10 Latin       PG-13       518787900 
## # … with 94 more rows
…
This shows a correlation matrix between the numeric variables. The highest correlation is between IMDB rating and IMDB votes (0.6359). The next highest correlation is between runtime and number of Oscars won (0.4262). Bechdel test score and IMDB votes have the weakest correlation (0.0142). Interestingly, the Bechdel test score has a slight negative correlation with the IMDB rating (-0.1397) and the number of Oscars nominated (-0.0548).

movies_comb%>%na.omit%>%
  select(Director,rating,USboxOfficeInf)%>%
  group_by(Director)%>%distinct()%>%
  summarize(bechdel_mean=mean(rating),mean_BoxOfficeUs=mean(USboxOfficeInf))%>%
  arrange(desc(mean_BoxOfficeUs))

## # A tibble: 120 x 3
##    Director         bechdel_mean mean_BoxOfficeUs
##    <chr>                   <dbl>            <dbl>
##  1 Sam Wood                    3       1802000000
##  2 George Lucas                1       1286033500
##  3 J.J. Abrams                 3        974117000
##  4 George Cukor                3        902920351
##  5 Victor Fleming              3        902920351
##  6 Irvin Kershner              0        892853900
##  7 William Wyler               3        882980000
##  8 Richard Marquand            1        729660300
##  9 George Roy Hill             1        719451700
## 10 Rob Minkoff                 1        672365600
## # … with 110 more rows

This looked at directors by their mean Bechdel score. Sam Wood had the highest mean US box office totals and a mean Bechdel rating of 3, while George Lucas had the second highest mean but a mean Bechdel rating of only 1. Irvin Kershner is ranked #6 by mean US box office totals but has a Bechdel score of 0.

movies_comb%>%na.omit%>%
  select(Writer,rating,Metascore,oscarsWon)%>%
  group_by(Writer)%>%distinct()%>%
  summarize(mean_bechdel=mean(rating),
  mean_Metascore=mean(Metascore),mean_Oscars_won=mean(oscarsWon))%>%
  arrange(desc(mean_Metascore))

## # A tibble: 400 x 4
##    Writer                           mean_bechdel mean_Metascore mean_Oscars_won
##    <chr>                                   <dbl>          <dbl>           <dbl>
##  1 Edgar Allan Woolf (screenplay)              3            100               2
##  2 Florence Ryerson (screenplay)               3            100               2
##  3 L. Frank Baum (from the book by)            3            100               2
##  4 Michael Wilson (screenplay)                 0            100               7
##  5 Noel Langley (adaptation)                   3            100               2
##  6 Noel Langley (screenplay)                   3            100               2
##  7 Robert Bolt (screenplay)                    0            100               7
##  8 T.E. Lawrence (writings)                    0            100               7
##  9 Guillermo del Toro                          3             98               3
## 10 Joseph Stefano (screenplay)                 1             97               0
## # … with 390 more rows
…
